dual-port_memory/dump/memory.vcd
$date
	Sat Oct 24 21:31:39 2020
$end
$version
	Icarus Verilog
$end
$timescale
	100ps
$end
$scope module testbench $end
$var wire 1 ! error_output_estr $end
$var wire 1 " fifo_almost_empty_estr $end
$var wire 1 # fifo_almost_full_estr $end
$var wire 1 $ fifo_empty_estr $end
$var wire 1 % fifo_full_estr $end
$var wire 1 & reset_L $end
$var wire 1 ' fifo_wr $end
$var wire 1 ( fifo_rd $end
$var wire 1 ) fifo_full $end
$var wire 1 * fifo_empty $end
$var wire 4 + fifo_data_out [3:0] $end
$var wire 4 , fifo_data_in [3:0] $end
$var wire 1 - fifo_almost_full $end
$var wire 1 . fifo_almost_empty $end
$var wire 1 / error_output $end
$var wire 1 0 clk $end
$scope module fifo_cond $end
$var wire 1 * fifo_empty $end
$var wire 1 ) fifo_full $end
$var wire 1 & reset_L $end
$var wire 6 1 nxtaddr [5:0] $end
$var wire 1 2 full $end
$var wire 1 ' fifo_wr $end
$var wire 1 ( fifo_rd $end
$var wire 4 3 fifo_data_in [3:0] $end
$var wire 1 - fifo_almost_full $end
$var wire 1 . fifo_almost_empty $end
$var wire 1 4 empty $end
$var wire 1 0 clk $end
$var reg 1 / error_output $end
$var reg 4 5 fifo_data_out [3:0] $end
$var reg 6 6 o_fill [5:0] $end
$var reg 1 7 overrun $end
$var reg 6 8 rdaddr [5:0] $end
$var reg 1 9 underrun $end
$var reg 6 : wraddr [5:0] $end
$upscope $end
$scope module prb $end
$var wire 1 / error_output $end
$var wire 1 ! error_output_estr $end
$var wire 1 . fifo_almost_empty $end
$var wire 1 " fifo_almost_empty_estr $end
$var wire 1 - fifo_almost_full $end
$var wire 1 # fifo_almost_full_estr $end
$var wire 4 ; fifo_data_out [3:0] $end
$var wire 1 * fifo_empty $end
$var wire 1 $ fifo_empty_estr $end
$var wire 1 ) fifo_full $end
$var wire 1 % fifo_full_estr $end
$var reg 1 0 clk $end
$var reg 4 < fifo_data_in [3:0] $end
$var reg 1 ( fifo_rd $end
$var reg 1 ' fifo_wr $end
$var reg 1 & reset_L $end
$upscope $end
$upscope $end
$enddefinitions $end
#0
$dumpvars
b0 <
b0 ;
bx :
x9
bx 8
x7
bx 6
b0 5
x4
b0 3
x2
bx 1
00
x/
x.
x-
b0 ,
b0 +
x*
x)
0(
0'
0&
z%
z$
z#
z"
z!
$end
#80
0/
07
b1 1
b0 :
09
b0 8
0)
02
1*
14
0.
0-
b0 6
10
#160
00
#240
1&
10
#320
00
#400
1'
b1010 ,
b1010 3
b1010 <
10
#480
00
#560
b1011 ,
b1011 3
b1011 <
0*
04
1.
b1 6
b10 1
b1 :
10
#640
00
#720
b11 1
b10 :
0.
b10 6
b1100 ,
b1100 3
b1100 <
10
#800
00
#880
b1101 ,
b1101 3
b1101 <
b11 6
b100 1
b11 :
10
#960
00
#1040
b101 1
b100 :
b100 6
b1110 ,
b1110 3
b1110 <
10
#1120
00
#1200
b1111 ,
b1111 3
b1111 <
1-
b101 6
b110 1
b101 :
10
#1280
00
#1360
0'
b1 1
b0 :
1)
12
0-
b110 6
b1001 ,
b1001 3
b1001 <
10
#1440
00
#1520
b0 ,
b0 3
b0 <
10
#1600
00
#1680
b1010 +
b1010 5
b1010 ;
1(
10
#1760
00
#1840
b1011 +
b1011 5
b1011 ;
0)
02
1-
b101 6
b1 8
10
#1920
00
#2000
b1100 +
b1100 5
b1100 ;
b10 8
0-
b100 6
10
#2080
00
#2160
b1101 +
b1101 5
b1101 ;
b11 6
b11 8
10
#2240
00
#2320
b1110 +
b1110 5
b1110 ;
b100 8
b10 6
10
#2400
00
#2480
b1111 +
b1111 5
b1111 ;
1.
b1 6
b101 8
10
#2560
00
#2640
b1010 +
b1010 5
b1010 ;
b0 8
1*
14
0.
b0 6
10
#2720
00
#2800
b0 +
b0 5
b0 ;
1/
0(
19
10
#2880
00
#2960
10
#3040
00
#3120
10
#3200
00
#3280
10
#3360
00
#3440
10
#3520
00
#3600
10
#3680
00
#3760
b1010 +
b1010 5
b1010 ;
1(
10
