demux_dest/dump/demux_vcid.vcd
$date
	Tue Nov  3 17:26:39 2020
$end
$version
	Icarus Verilog
$end
$timescale
	100ps
$end
$scope module BUF $end
$var wire 1 ! A $end
$var wire 1 " Y $end
$upscope $end
$scope module DFFSR $end
$var wire 1 # C $end
$var wire 1 $ D $end
$var wire 1 % R $end
$var wire 1 & S $end
$var reg 1 ' Q $end
$upscope $end
$scope module testbench $end
$var wire 1 ( valid_in_vc1_estr $end
$var wire 1 ) valid_in_vc1 $end
$var wire 1 * valid_in_vc0_estr $end
$var wire 1 + valid_in_vc0 $end
$var wire 1 , valid_in_estr $end
$var wire 1 - valid_in $end
$var wire 1 . reset_L $end
$var wire 6 / data_in_vc1_estr [5:0] $end
$var wire 6 0 data_in_vc1 [5:0] $end
$var wire 6 1 data_in_vc0_estr [5:0] $end
$var wire 6 2 data_in_vc0 [5:0] $end
$var wire 6 3 data_in_estr [5:0] $end
$var wire 6 4 data_in [5:0] $end
$var wire 1 5 clk $end
$scope module d_vc_id $end
$var wire 1 - valid_in $end
$var wire 1 6 selector $end
$var wire 1 . reset_L $end
$var wire 6 7 data_in [5:0] $end
$var wire 1 5 clk $end
$var reg 6 8 data_in_vc0 [5:0] $end
$var reg 6 9 data_in_vc1 [5:0] $end
$var reg 6 : data_recordar0 [5:0] $end
$var reg 6 ; data_recordar1 [5:0] $end
$var reg 1 + valid_in_vc0 $end
$var reg 1 ) valid_in_vc1 $end
$var reg 1 < valid_recordar0 $end
$var reg 1 = valid_recordar1 $end
$upscope $end
$scope module d_vc_id_estr $end
$var wire 1 ( valid_in_vc1 $end
$var wire 1 * valid_in_vc0 $end
$var wire 1 , valid_in $end
$var wire 1 > selector $end
$var wire 1 . reset_L $end
$var wire 6 ? data_in_vc1 [5:0] $end
$var wire 6 @ data_in_vc0 [5:0] $end
$var wire 6 A data_in [5:0] $end
$var wire 1 5 clk $end
$var wire 1 B _33_ $end
$var wire 1 C _32_ $end
$var wire 1 D _31_ $end
$var wire 1 E _30_ $end
$var wire 1 F _29_ $end
$var wire 1 G _28_ $end
$var wire 1 H _27_ $end
$var wire 1 I _26_ $end
$var wire 1 J _25_ $end
$var wire 1 K _24_ $end
$var wire 1 L _23_ $end
$var wire 1 M _22_ $end
$var wire 1 N _21_ $end
$var wire 1 O _20_ $end
$var wire 1 P _19_ $end
$var wire 1 Q _18_ $end
$var wire 1 R _17_ $end
$var wire 1 S _16_ $end
$var wire 1 T _15_ $end
$var wire 1 U _14_ $end
$var wire 1 V _13_ $end
$var wire 1 W _12_ $end
$var wire 1 X _11_ $end
$var wire 1 Y _10_ $end
$var wire 1 Z _09_ $end
$var wire 1 [ _08_ $end
$var wire 1 \ _07_ $end
$var wire 1 ] _06_ $end
$var wire 1 ^ _05_ $end
$var wire 1 _ _04_ $end
$var wire 1 ` _03_ $end
$var wire 1 a _02_ $end
$var wire 6 b _01_ [5:0] $end
$var wire 6 c _00_ [5:0] $end
$scope module _34_ $end
$var wire 1 _ Y $end
$var wire 1 , A $end
$upscope $end
$scope module _35_ $end
$var wire 1 d B $end
$var wire 1 ^ Y $end
$var wire 1 . A $end
$upscope $end
$scope module _36_ $end
$var wire 1 ^ A $end
$var wire 1 _ B $end
$var wire 1 ` Y $end
$upscope $end
$scope module _37_ $end
$var wire 1 ] Y $end
$var wire 1 . A $end
$upscope $end
$scope module _38_ $end
$var wire 1 ] A $end
$var wire 1 e B $end
$var wire 1 \ Y $end
$upscope $end
$scope module _39_ $end
$var wire 1 \ A $end
$var wire 1 f B $end
$var wire 1 [ Y $end
$upscope $end
$scope module _40_ $end
$var wire 1 ` A $end
$var wire 1 g B $end
$var wire 1 Z Y $end
$upscope $end
$scope module _41_ $end
$var wire 1 Z A $end
$var wire 1 [ B $end
$var wire 1 h Y $end
$upscope $end
$scope module _42_ $end
$var wire 1 \ A $end
$var wire 1 i B $end
$var wire 1 Y Y $end
$upscope $end
$scope module _43_ $end
$var wire 1 ` A $end
$var wire 1 j B $end
$var wire 1 X Y $end
$upscope $end
$scope module _44_ $end
$var wire 1 X A $end
$var wire 1 Y B $end
$var wire 1 k Y $end
$upscope $end
$scope module _45_ $end
$var wire 1 \ A $end
$var wire 1 l B $end
$var wire 1 W Y $end
$upscope $end
$scope module _46_ $end
$var wire 1 ` A $end
$var wire 1 m B $end
$var wire 1 V Y $end
$upscope $end
$scope module _47_ $end
$var wire 1 V A $end
$var wire 1 W B $end
$var wire 1 n Y $end
$upscope $end
$scope module _48_ $end
$var wire 1 \ A $end
$var wire 1 o B $end
$var wire 1 U Y $end
$upscope $end
$scope module _49_ $end
$var wire 1 ` A $end
$var wire 1 p B $end
$var wire 1 T Y $end
$upscope $end
$scope module _50_ $end
$var wire 1 T A $end
$var wire 1 U B $end
$var wire 1 q Y $end
$upscope $end
$scope module _51_ $end
$var wire 1 \ A $end
$var wire 1 r B $end
$var wire 1 S Y $end
$upscope $end
$scope module _52_ $end
$var wire 1 ` A $end
$var wire 1 s B $end
$var wire 1 R Y $end
$upscope $end
$scope module _53_ $end
$var wire 1 R A $end
$var wire 1 S B $end
$var wire 1 t Y $end
$upscope $end
$scope module _54_ $end
$var wire 1 u A $end
$var wire 1 Q Y $end
$upscope $end
$scope module _55_ $end
$var wire 1 ] A $end
$var wire 1 Q B $end
$var wire 1 P Y $end
$upscope $end
$scope module _56_ $end
$var wire 1 P A $end
$var wire 1 O Y $end
$var wire 1 , B $end
$upscope $end
$scope module _57_ $end
$var wire 1 \ A $end
$var wire 1 v B $end
$var wire 1 N Y $end
$upscope $end
$scope module _58_ $end
$var wire 1 N A $end
$var wire 1 O B $end
$var wire 1 w Y $end
$upscope $end
$scope module _59_ $end
$var wire 1 M Y $end
$var wire 1 , B $end
$var wire 1 . A $end
$upscope $end
$scope module _60_ $end
$var wire 1 M A $end
$var wire 1 x B $end
$var wire 1 a Y $end
$upscope $end
$scope module _61_ $end
$var wire 1 P A $end
$var wire 1 y B $end
$var wire 1 L Y $end
$upscope $end
$scope module _62_ $end
$var wire 1 a A $end
$var wire 1 z B $end
$var wire 1 K Y $end
$upscope $end
$scope module _63_ $end
$var wire 1 K A $end
$var wire 1 L B $end
$var wire 1 { Y $end
$upscope $end
$scope module _64_ $end
$var wire 1 P A $end
$var wire 1 | B $end
$var wire 1 J Y $end
$upscope $end
$scope module _65_ $end
$var wire 1 a A $end
$var wire 1 } B $end
$var wire 1 I Y $end
$upscope $end
$scope module _66_ $end
$var wire 1 I A $end
$var wire 1 J B $end
$var wire 1 ~ Y $end
$upscope $end
$scope module _67_ $end
$var wire 1 P A $end
$var wire 1 !" B $end
$var wire 1 H Y $end
$upscope $end
$scope module _68_ $end
$var wire 1 a A $end
$var wire 1 "" B $end
$var wire 1 G Y $end
$upscope $end
$scope module _69_ $end
$var wire 1 G A $end
$var wire 1 H B $end
$var wire 1 #" Y $end
$upscope $end
$scope module _70_ $end
$var wire 1 P A $end
$var wire 1 $" B $end
$var wire 1 F Y $end
$upscope $end
$scope module _71_ $end
$var wire 1 a A $end
$var wire 1 %" B $end
$var wire 1 E Y $end
$upscope $end
$scope module _72_ $end
$var wire 1 E A $end
$var wire 1 F B $end
$var wire 1 &" Y $end
$upscope $end
$scope module _73_ $end
$var wire 1 P A $end
$var wire 1 '" B $end
$var wire 1 D Y $end
$upscope $end
$scope module _74_ $end
$var wire 1 a A $end
$var wire 1 (" B $end
$var wire 1 C Y $end
$upscope $end
$scope module _75_ $end
$var wire 1 C A $end
$var wire 1 D B $end
$var wire 1 )" Y $end
$upscope $end
$scope module _76_ $end
$var wire 1 *" A $end
$var wire 1 B Y $end
$upscope $end
$scope module _77_ $end
$var wire 1 ^ A $end
$var wire 1 B B $end
$var wire 1 +" Y $end
$upscope $end
$scope module _78_ $end
$var wire 1 ," D $end
$var wire 1 5 C $end
$var reg 1 -" Q $end
$upscope $end
$scope module _79_ $end
$var wire 1 ." D $end
$var wire 1 5 C $end
$var reg 1 /" Q $end
$upscope $end
$scope module _80_ $end
$var wire 1 0" D $end
$var wire 1 5 C $end
$var reg 1 1" Q $end
$upscope $end
$scope module _81_ $end
$var wire 1 2" D $end
$var wire 1 5 C $end
$var reg 1 3" Q $end
$upscope $end
$scope module _82_ $end
$var wire 1 4" D $end
$var wire 1 5 C $end
$var reg 1 5" Q $end
$upscope $end
$scope module _83_ $end
$var wire 1 6" D $end
$var wire 1 5 C $end
$var reg 1 7" Q $end
$upscope $end
$scope module _84_ $end
$var wire 1 a D $end
$var wire 1 5 C $end
$var reg 1 * Q $end
$upscope $end
$scope module _85_ $end
$var wire 1 8" D $end
$var wire 1 5 C $end
$var reg 1 9" Q $end
$upscope $end
$scope module _86_ $end
$var wire 1 :" D $end
$var wire 1 5 C $end
$var reg 1 ;" Q $end
$upscope $end
$scope module _87_ $end
$var wire 1 <" D $end
$var wire 1 5 C $end
$var reg 1 =" Q $end
$upscope $end
$scope module _88_ $end
$var wire 1 >" D $end
$var wire 1 5 C $end
$var reg 1 ?" Q $end
$upscope $end
$scope module _89_ $end
$var wire 1 @" D $end
$var wire 1 5 C $end
$var reg 1 A" Q $end
$upscope $end
$scope module _90_ $end
$var wire 1 B" D $end
$var wire 1 5 C $end
$var reg 1 C" Q $end
$upscope $end
$scope module _91_ $end
$var wire 1 ` D $end
$var wire 1 5 C $end
$var reg 1 ( Q $end
$upscope $end
$upscope $end
$scope module prb $end
$var reg 1 5 clk $end
$var reg 6 D" data_in [5:0] $end
$var reg 6 E" data_in_estr [5:0] $end
$var reg 1 . reset_L $end
$var reg 1 - valid_in $end
$var reg 1 , valid_in_estr $end
$upscope $end
$upscope $end
$enddefinitions $end
#0
$dumpvars
b0 E"
b0 D"
xC"
0B"
xA"
0@"
x?"
0>"
x="
0<"
x;"
0:"
x9"
08"
x7"
06"
x5"
04"
x3"
02"
x1"
00"
x/"
0."
x-"
0,"
0+"
x*"
0)"
0("
x'"
0&"
0%"
x$"
0#"
0""
x!"
0~
0}
x|
0{
0z
xy
0x
0w
xv
0u
0t
0s
xr
0q
0p
xo
0n
0m
xl
0k
0j
xi
0h
0g
xf
0e
0d
b0 c
b0 b
0a
0`
1_
1^
1]
0\
1[
1Z
1Y
1X
1W
1V
1U
1T
1S
1R
1Q
0P
1O
1N
1M
1L
1K
1J
1I
1H
1G
1F
1E
1D
1C
xB
b0 A
bx @
bx ?
0>
0=
0<
b0 ;
b0 :
bx 9
bx 8
b0 7
06
05
b0 4
b0 3
bx 2
bx 1
bx 0
bx /
0.
0-
0,
x+
x*
x)
x(
x'
z&
z%
z$
z#
z"
z!
$end
#20
1B
0y
0|
0!"
0$"
0'"
0*"
0f
0i
0l
0o
0r
0v
0)
0+
b0 0
b0 9
b0 2
b0 8
0-"
0/"
01"
03"
05"
b0 1
b0 @
07"
0*
09"
0;"
0="
0?"
0A"
b0 /
b0 ?
0C"
0(
15
#40
05
#60
1,"
14"
1{
b10001 c
1)"
0K
0C
1a
1\
0M
0_
0]
1("
1z
1s
1g
1<
b10001 :
1,
1-
1.
b10001 3
b10001 A
b10001 E"
b10001 4
b10001 7
b10001 D"
15
#80
05
#100
1:"
1@"
1B"
1k
1t
b110010 b
1w
0X
0R
0."
1,"
0O
0L
0D
0~
b10001 c
1{
1C
1`
1P
1I
1K
0a
0\
0^
0Q
1=
0<
b110010 ;
1y
1'"
1>
1}
0z
1x
1u
1j
0g
1e
1d
16
b0 :
1+
b10001 2
b10001 8
1-"
b10001 1
b10001 @
15"
1*
b110010 3
b110010 A
b110010 E"
b110010 4
b110010 7
b110010 D"
15
#120
05
#140
18"
b110011 b
1h
0Z
1z
1g
b110011 ;
1v
1r
1i
b110011 3
b110011 A
b110011 E"
b110011 4
b110011 7
b110011 D"
1(
1C"
1A"
b110010 /
b110010 ?
1;"
0*
0+
1)
b110010 0
b110010 9
15
#160
05
#180
0,"
10"
0{
b10100 c
1#"
1R
1O
1L
1D
0<"
1:"
18"
0G
0C
0n
1k
b110011 b
1h
0[
0Y
0S
0N
0`
0P
1a
1V
1X
1Z
1\
1^
1Q
0=
1<
b10100 :
1f
0>
1""
0}
0z
0x
0u
1m
0j
0g
0e
0d
06
b0 ;
b110011 0
b110011 9
b110011 /
b110011 ?
19"
b10100 3
b10100 A
b10100 E"
b10100 4
b10100 7
b10100 D"
15
#200
05
#220
04"
00"
0)"
b0 c
0#"
0a
1C
1G
1M
1_
0("
0""
0s
0m
0<
b0 :
1!"
0y
0,
0-
b0 3
b0 A
b0 E"
b0 4
b0 7
b0 D"
0(
1*
11"
b10100 1
b10100 @
0-"
0)
1+
b10100 2
b10100 8
15
#240
05
#260
0!"
0'"
0+
b0 2
b0 8
01"
b0 1
b0 @
05"
0*
15
