interconexion/dump/interconexion.vcd
$date
	Tue Nov 10 23:05:29 2020
$end
$version
	Icarus Verilog
$end
$timescale
	100ps
$end
$scope module testbench $end
$var wire 6 ! D0_data_out [5:0] $end
$var wire 1 " D0_empty $end
$var wire 1 # D0_error_output $end
$var wire 1 $ D0_rd $end
$var wire 6 % D1_data_out [5:0] $end
$var wire 1 & D1_empty $end
$var wire 1 ' D1_error_output $end
$var wire 1 ( D1_rd $end
$var wire 6 ) Main_data_in [5:0] $end
$var wire 1 * Main_empty $end
$var wire 1 + Main_error_output $end
$var wire 1 , Main_full $end
$var wire 1 - Main_wr $end
$var wire 1 . VC0_empty $end
$var wire 1 / VC0_error_output $end
$var wire 1 0 VC1_empty $end
$var wire 1 1 VC1_error_output $end
$var wire 1 2 clk $end
$var wire 1 3 reset_L $end
$scope module intc $end
$var wire 1 4 D0_almost_empty $end
$var wire 1 5 D0_almost_full $end
$var wire 6 6 D0_data_in [5:0] $end
$var wire 6 7 D0_data_out [5:0] $end
$var wire 1 " D0_empty $end
$var wire 1 # D0_error_output $end
$var wire 1 8 D0_full $end
$var wire 1 $ D0_rd $end
$var wire 1 9 D0_wr $end
$var wire 1 : D1_almost_empty $end
$var wire 1 ; D1_almost_full $end
$var wire 6 < D1_data_in [5:0] $end
$var wire 6 = D1_data_out [5:0] $end
$var wire 1 & D1_empty $end
$var wire 1 ' D1_error_output $end
$var wire 1 > D1_full $end
$var wire 1 ( D1_rd $end
$var wire 1 ? D1_wr $end
$var wire 1 @ Main_almost_empty $end
$var wire 1 A Main_almost_full $end
$var wire 6 B Main_data_in [5:0] $end
$var wire 6 C Main_data_out [5:0] $end
$var wire 1 * Main_empty $end
$var wire 1 + Main_error_output $end
$var wire 1 , Main_full $end
$var wire 1 D Main_rd $end
$var wire 1 - Main_wr $end
$var wire 1 E VC0_almost_empty $end
$var wire 1 F VC0_almost_full $end
$var wire 6 G VC0_data_out [5:0] $end
$var wire 1 . VC0_empty $end
$var wire 1 / VC0_error_output $end
$var wire 1 H VC0_full $end
$var wire 1 I VC0_rd $end
$var wire 1 J VC1_almost_empty $end
$var wire 1 K VC1_almost_full $end
$var wire 6 L VC1_data_out [5:0] $end
$var wire 1 0 VC1_empty $end
$var wire 1 1 VC1_error_output $end
$var wire 1 M VC1_full $end
$var wire 1 N VC1_rd $end
$var wire 1 2 clk $end
$var wire 6 O data_in_vc0 [5:0] $end
$var wire 6 P data_in_vc1 [5:0] $end
$var wire 6 Q demux_dest_data_in [5:0] $end
$var wire 1 R demux_dest_valid_in $end
$var wire 6 S demux_vcid_in [5:0] $end
$var wire 1 T demux_vcid_valid_in $end
$var wire 1 3 reset_L $end
$var wire 1 U valid_in_vc0 $end
$var wire 1 V valid_in_vc1 $end
$var wire 1 W vc0_delay $end
$scope module f_main $end
$var wire 1 @ Main_almost_empty $end
$var wire 1 A Main_almost_full $end
$var wire 6 X Main_data_in [5:0] $end
$var wire 6 Y Main_data_out [5:0] $end
$var wire 1 * Main_empty $end
$var wire 1 + Main_error_output $end
$var wire 1 , Main_full $end
$var wire 1 D Main_rd $end
$var wire 1 - Main_wr $end
$var wire 1 2 clk $end
$var wire 1 3 reset_L $end
$scope module Main $end
$var wire 1 2 clk $end
$var wire 1 Z empty $end
$var wire 1 @ fifo_almost_empty $end
$var wire 1 A fifo_almost_full $end
$var wire 6 [ fifo_data_in [5:0] $end
$var wire 1 * fifo_empty $end
$var wire 1 , fifo_full $end
$var wire 1 D fifo_rd $end
$var wire 1 - fifo_wr $end
$var wire 1 \ full $end
$var wire 4 ] nxtaddr [3:0] $end
$var wire 1 3 reset_L $end
$var reg 1 ^ error_output $end
$var reg 6 _ fifo_data_out [5:0] $end
$var reg 4 ` o_fill [3:0] $end
$var reg 1 a overrun $end
$var reg 4 b rdaddr [3:0] $end
$var reg 1 c underrun $end
$var reg 4 d wraddr [3:0] $end
$upscope $end
$upscope $end
$scope module pop_main $end
$var wire 6 e Main_data_out [5:0] $end
$var wire 1 * Main_empty $end
$var wire 1 F VC0_almost_full $end
$var wire 1 K VC1_almost_full $end
$var wire 1 2 clk $end
$var wire 1 3 reset_L $end
$var reg 1 f Main_rd $end
$var reg 6 g data_out_recordar [5:0] $end
$var reg 6 h demux_vcid_in [5:0] $end
$var reg 1 i demux_vcid_valid_in $end
$var reg 1 j demux_vcid_valid_in_recordar $end
$upscope $end
$scope module d_vcid $end
$var wire 1 2 clk $end
$var wire 6 k demux_vcid_in [5:0] $end
$var wire 1 T demux_vcid_valid_in $end
$var wire 1 3 reset_L $end
$var wire 1 l selector $end
$var reg 6 m data_in_vc0 [5:0] $end
$var reg 6 n data_in_vc1 [5:0] $end
$var reg 6 o data_recordar0 [5:0] $end
$var reg 6 p data_recordar1 [5:0] $end
$var reg 1 q valid_in_vc0 $end
$var reg 1 r valid_in_vc1 $end
$var reg 1 s valid_recordar0 $end
$var reg 1 t valid_recordar1 $end
$upscope $end
$scope module f_vc0 $end
$var wire 1 E VC0_almost_empty $end
$var wire 1 F VC0_almost_full $end
$var wire 6 u VC0_data_out [5:0] $end
$var wire 1 . VC0_empty $end
$var wire 1 / VC0_error_output $end
$var wire 1 H VC0_full $end
$var wire 1 I VC0_rd $end
$var wire 1 2 clk $end
$var wire 6 v data_in_vc0 [5:0] $end
$var wire 1 3 reset_L $end
$var wire 1 U valid_in_vc0 $end
$scope module VC0 $end
$var wire 1 2 clk $end
$var wire 1 w empty $end
$var wire 1 E fifo_almost_empty $end
$var wire 1 F fifo_almost_full $end
$var wire 6 x fifo_data_in [5:0] $end
$var wire 1 . fifo_empty $end
$var wire 1 H fifo_full $end
$var wire 1 I fifo_rd $end
$var wire 1 U fifo_wr $end
$var wire 1 y full $end
$var wire 16 z nxtaddr [15:0] $end
$var wire 1 3 reset_L $end
$var reg 1 { error_output $end
$var reg 6 | fifo_data_out [5:0] $end
$var reg 16 } o_fill [15:0] $end
$var reg 1 ~ overrun $end
$var reg 16 !" rdaddr [15:0] $end
$var reg 1 "" underrun $end
$var reg 16 #" wraddr [15:0] $end
$upscope $end
$upscope $end
$scope module f_vc1 $end
$var wire 1 J VC1_almost_empty $end
$var wire 1 K VC1_almost_full $end
$var wire 6 $" VC1_data_out [5:0] $end
$var wire 1 0 VC1_empty $end
$var wire 1 1 VC1_error_output $end
$var wire 1 M VC1_full $end
$var wire 1 N VC1_rd $end
$var wire 1 2 clk $end
$var wire 6 %" data_in_vc1 [5:0] $end
$var wire 1 3 reset_L $end
$var wire 1 V valid_in_vc1 $end
$scope module VC1 $end
$var wire 1 2 clk $end
$var wire 1 &" empty $end
$var wire 1 J fifo_almost_empty $end
$var wire 1 K fifo_almost_full $end
$var wire 6 '" fifo_data_in [5:0] $end
$var wire 1 0 fifo_empty $end
$var wire 1 M fifo_full $end
$var wire 1 N fifo_rd $end
$var wire 1 V fifo_wr $end
$var wire 1 (" full $end
$var wire 16 )" nxtaddr [15:0] $end
$var wire 1 3 reset_L $end
$var reg 1 *" error_output $end
$var reg 6 +" fifo_data_out [5:0] $end
$var reg 16 ," o_fill [15:0] $end
$var reg 1 -" overrun $end
$var reg 16 ." rdaddr [15:0] $end
$var reg 1 /" underrun $end
$var reg 16 0" wraddr [15:0] $end
$upscope $end
$upscope $end
$scope module pop_vc0 $end
$var wire 1 8 D0_full $end
$var wire 1 > D1_full $end
$var wire 1 . VC0_empty $end
$var wire 1 0 VC1_empty $end
$var wire 1 2 clk $end
$var wire 1 3 reset_L $end
$var reg 1 1" VC0_rd $end
$var reg 1 2" VC1_rd $end
$var reg 1 3" and_d0d1 $end
$var reg 1 4" and_vc0_0 $end
$var reg 1 5" and_vc0_1 $end
$var reg 1 6" vc0_delay $end
$upscope $end
$scope module mux1 $end
$var wire 6 7" VC0_data_out [5:0] $end
$var wire 1 I VC0_rd $end
$var wire 6 8" VC1_data_out [5:0] $end
$var wire 1 N VC1_rd $end
$var wire 1 2 clk $end
$var wire 1 3 reset_L $end
$var wire 1 W vc0_delay $end
$var reg 6 9" data_out_recordar [5:0] $end
$var reg 6 :" demux_dest_data_in [5:0] $end
$var reg 1 ;" demux_dest_valid_in $end
$var reg 1 <" valid_in_recordar $end
$upscope $end
$scope module d_dest $end
$var wire 1 2 clk $end
$var wire 6 =" demux_dest_data_in [5:0] $end
$var wire 1 R demux_dest_valid_in $end
$var wire 1 3 reset_L $end
$var wire 1 >" selector $end
$var reg 6 ?" D0_data_in [5:0] $end
$var reg 1 @" D0_wr $end
$var reg 6 A" D1_data_in [5:0] $end
$var reg 1 B" D1_wr $end
$var reg 6 C" data_recordar0 [5:0] $end
$var reg 6 D" data_recordar1 [5:0] $end
$var reg 1 E" valid_recordar0 $end
$var reg 1 F" valid_recordar1 $end
$upscope $end
$scope module f_d0 $end
$var wire 1 4 D0_almost_empty $end
$var wire 1 5 D0_almost_full $end
$var wire 6 G" D0_data_in [5:0] $end
$var wire 6 H" D0_data_out [5:0] $end
$var wire 1 " D0_empty $end
$var wire 1 # D0_error_output $end
$var wire 1 8 D0_full $end
$var wire 1 $ D0_rd $end
$var wire 1 9 D0_wr $end
$var wire 1 2 clk $end
$var wire 1 3 reset_L $end
$scope module D0 $end
$var wire 1 2 clk $end
$var wire 1 I" empty $end
$var wire 1 4 fifo_almost_empty $end
$var wire 1 5 fifo_almost_full $end
$var wire 6 J" fifo_data_in [5:0] $end
$var wire 1 " fifo_empty $end
$var wire 1 8 fifo_full $end
$var wire 1 $ fifo_rd $end
$var wire 1 9 fifo_wr $end
$var wire 1 K" full $end
$var wire 4 L" nxtaddr [3:0] $end
$var wire 1 3 reset_L $end
$var reg 1 M" error_output $end
$var reg 6 N" fifo_data_out [5:0] $end
$var reg 4 O" o_fill [3:0] $end
$var reg 1 P" overrun $end
$var reg 4 Q" rdaddr [3:0] $end
$var reg 1 R" underrun $end
$var reg 4 S" wraddr [3:0] $end
$upscope $end
$upscope $end
$scope module f_d1 $end
$var wire 1 : D1_almost_empty $end
$var wire 1 ; D1_almost_full $end
$var wire 6 T" D1_data_in [5:0] $end
$var wire 6 U" D1_data_out [5:0] $end
$var wire 1 & D1_empty $end
$var wire 1 ' D1_error_output $end
$var wire 1 > D1_full $end
$var wire 1 ( D1_rd $end
$var wire 1 ? D1_wr $end
$var wire 1 2 clk $end
$var wire 1 3 reset_L $end
$scope module D1 $end
$var wire 1 2 clk $end
$var wire 1 V" empty $end
$var wire 1 : fifo_almost_empty $end
$var wire 1 ; fifo_almost_full $end
$var wire 6 W" fifo_data_in [5:0] $end
$var wire 1 & fifo_empty $end
$var wire 1 > fifo_full $end
$var wire 1 ( fifo_rd $end
$var wire 1 ? fifo_wr $end
$var wire 1 X" full $end
$var wire 4 Y" nxtaddr [3:0] $end
$var wire 1 3 reset_L $end
$var reg 1 Z" error_output $end
$var reg 6 [" fifo_data_out [5:0] $end
$var reg 4 \" o_fill [3:0] $end
$var reg 1 ]" overrun $end
$var reg 4 ^" rdaddr [3:0] $end
$var reg 1 _" underrun $end
$var reg 4 `" wraddr [3:0] $end
$upscope $end
$upscope $end
$upscope $end
$scope module prb $end
$var wire 6 a" D0_data_out [5:0] $end
$var wire 1 " D0_empty $end
$var wire 1 # D0_error_output $end
$var wire 6 b" D1_data_out [5:0] $end
$var wire 1 & D1_empty $end
$var wire 1 ' D1_error_output $end
$var wire 1 * Main_empty $end
$var wire 1 + Main_error_output $end
$var wire 1 , Main_full $end
$var wire 1 . VC0_empty $end
$var wire 1 / VC0_error_output $end
$var wire 1 0 VC1_empty $end
$var wire 1 1 VC1_error_output $end
$var reg 1 c" D0_rd $end
$var reg 1 d" D1_rd $end
$var reg 6 e" Main_data_in [5:0] $end
$var reg 1 f" Main_wr $end
$var reg 1 g" clk $end
$var reg 1 h" reset_L $end
$upscope $end
$upscope $end
$enddefinitions $end
#0
$dumpvars
0h"
0g"
0f"
b0 e"
0d"
0c"
b0 b"
b0 a"
bx `"
x_"
bx ^"
x]"
bx \"
b0 ["
xZ"
bx Y"
xX"
bx W"
xV"
b0 U"
bx T"
bx S"
xR"
bx Q"
xP"
bx O"
b0 N"
xM"
bx L"
xK"
bx J"
xI"
b0 H"
bx G"
0F"
0E"
b0 D"
b0 C"
xB"
bx A"
x@"
bx ?"
x>"
bx ="
x<"
x;"
bx :"
bx 9"
bx 8"
bx 7"
x6"
x5"
x4"
x3"
x2"
x1"
bx 0"
x/"
bx ."
x-"
bx ,"
bx +"
x*"
bx )"
x("
bx '"
x&"
bx %"
bx $"
bx #"
x""
bx !"
x~
bx }
bx |
x{
bx z
xy
bx x
xw
bx v
bx u
0t
0s
xr
xq
b0 p
b0 o
bx n
bx m
xl
bx k
xj
xi
bx h
bx g
xf
bx e
bx d
xc
bx b
xa
bx `
bx _
x^
bx ]
x\
b0 [
xZ
bx Y
b0 X
xW
xV
xU
xT
bx S
xR
bx Q
bx P
bx O
xN
xM
bx L
xK
xJ
xI
xH
bx G
xF
xE
xD
bx C
b0 B
xA
x@
x?
x>
b0 =
bx <
x;
x:
x9
x8
b0 7
bx 6
x5
x4
03
02
x1
x0
x/
x.
0-
x,
x+
x*
b0 )
0(
x'
x&
b0 %
0$
x#
x"
b0 !
$end
#80
0{
0/
0*"
01
b0 9"
0<"
02"
0N
01"
0I
06"
0W
0^
0+
b0 _
b0 C
b0 Y
b0 e
0l
b0 |
b0 G
b0 u
b0 7"
04"
b0 +"
b0 L
b0 $"
b0 8"
05"
0f
0D
0j
b0 g
0>"
0M"
0#
0Z"
0'
03"
1f"
1-
0a
b0 d
b1 ]
0c
b0 b
b0 `
0\
0,
1Z
1*
0@
0A
0i
0T
b0 h
b0 S
b0 k
0r
0V
0q
0U
b0 n
b0 P
b0 %"
b0 '"
b0 m
b0 O
b0 v
b0 x
0~
b0 #"
b1 z
0""
b0 !"
b0 }
0y
0H
1w
1.
0E
0F
0-"
b0 0"
b1 )"
0/"
b0 ."
b0 ,"
0("
0M
1&"
10
0J
0K
0;"
0R
b0 :"
b0 Q
b0 ="
0B"
0?
0@"
09
b0 A"
b0 <
b0 T"
b0 W"
b0 ?"
b0 6
b0 G"
b0 J"
0P"
b0 S"
b1 L"
0R"
b0 Q"
b0 O"
0K"
08
1I"
1"
04
05
0]"
b0 `"
b1 Y"
0_"
b0 ^"
b0 \"
0X"
0>
1V"
1&
0:
0;
b101 e"
b101 )
b101 B
b101 X
b101 [
1h"
13
1g"
12
#160
0g"
02
#240
b101 g
b101 _
b101 C
b101 Y
b101 e
1f
1D
1j
b10111 e"
b10111 )
b10111 B
b10111 X
b10111 [
b1 `
0Z
0*
1@
b1 d
b10 ]
1g"
12
#320
0g"
02
#400
b10111 g
b10111 _
b10111 C
b10111 Y
b10111 e
1s
b101 o
b10 d
b11 ]
b1 b
1i
1T
b101 h
b101 S
b101 k
b11100 e"
b11100 )
b11100 B
b11100 X
b11100 [
1g"
12
#480
0g"
02
#560
b11100 g
b10111 o
b11100 _
b11100 C
b11100 Y
b11100 e
b1 e"
b1 )
b1 B
b1 X
b1 [
1q
1U
b101 m
b101 O
b101 v
b101 x
b10111 h
b10111 S
b10111 k
b10 b
b11 d
b100 ]
1g"
12
#640
0g"
02
#720
b101 9"
1<"
b101 |
b101 G
b101 u
b101 7"
b1 g
11"
1I
b1 _
b1 C
b1 Y
b1 e
b11100 o
14"
b0 d
b1 ]
b11 b
b11100 h
b11100 S
b11100 k
b10111 m
b10111 O
b10111 v
b10111 x
b1 #"
b10 z
b1 }
0w
0.
1E
b100110 e"
b100110 )
b100110 B
b100110 X
b100110 [
1g"
12
#800
0g"
02
#880
b10111 9"
b100110 g
1E"
b101 C"
b10111 |
b10111 G
b10111 u
b10111 7"
b1 o
b100110 _
b100110 C
b100110 Y
b100110 e
b10100 e"
b10100 )
b10100 B
b10100 X
b10100 [
b101 :"
b101 Q
b101 ="
1;"
1R
b1 !"
b10 #"
b11 z
b11100 m
b11100 O
b11100 v
b11100 x
b1 h
b1 S
b1 k
b0 b
b1 d
b10 ]
1g"
12
#960
0g"
02
#1040
b10100 g
1t
0s
b100110 p
b11100 9"
1F"
0E"
b10111 D"
b10100 _
b10100 C
b10100 Y
b10100 e
1l
b0 o
b11100 |
b11100 G
b11100 u
b11100 7"
1>"
b0 C"
b10 d
b11 ]
b1 b
b100110 h
b100110 S
b100110 k
b1 m
b1 O
b1 v
b1 x
b11 #"
b100 z
b10 !"
b10111 :"
b10111 Q
b10111 ="
1@"
19
b101 ?"
b101 6
b101 G"
b101 J"
b101000 e"
b101000 )
b101000 B
b101000 X
b101000 [
1g"
12
#1120
0g"
02
#1200
b101 N"
b101 !
b101 7
b101 H"
b101 a"
b1 9"
0t
1s
b10100 o
b101000 g
1c"
1$
b11100 D"
b1 |
b1 G
b1 u
b1 7"
0l
b0 p
b101000 _
b101000 C
b101000 Y
b101000 e
b1 O"
0I"
0"
14
b1 S"
b10 L"
0@"
09
1B"
1?
b10111 A"
b10111 <
b10111 T"
b10111 W"
b11100 :"
b11100 Q
b11100 ="
b11 !"
b100 #"
b101 z
0q
0U
1r
1V
b100110 n
b100110 P
b100110 %"
b100110 '"
b10100 h
b10100 S
b10100 k
b10 b
b11 d
b100 ]
1g"
12
#1280
0g"
02
#1360
b100110 +"
b100110 L
b100110 $"
b100110 8"
1t
0s
b101000 p
b100110 9"
12"
1N
01"
0I
16"
1W
0F"
1E"
b1 C"
b101000 _
b101000 C
b101000 Y
b101000 e
1l
b0 o
b0 |
b0 G
b0 u
b0 7"
04"
15"
0>"
b0 D"
b0 N"
b0 !
b0 7
b0 H"
b0 a"
0c"
0$
b10111 ["
b10111 %
b10111 =
b10111 U"
b10111 b"
1d"
1(
b0 d
b1 ]
b11 b
b101000 h
b101000 S
b101000 k
0r
0V
1q
1U
b10100 m
b10100 O
b10100 v
b10100 x
b100 !"
b0 }
1w
1.
0E
b1 0"
b10 )"
b1 ,"
0&"
00
1J
b1 :"
b1 Q
b1 ="
b11100 A"
b11100 <
b11100 T"
b11100 W"
b1 Q"
b0 O"
1I"
1"
04
b1 `"
b10 Y"
b1 \"
0V"
0&
1:
1g"
12
#1440
0g"
02
#1520
b10100 |
b10100 G
b10100 u
b10100 7"
b10100 9"
02"
0N
11"
1I
06"
0W
b11100 ["
b11100 %
b11100 =
b11100 U"
b11100 b"
b100110 C"
b0 +"
b0 L
b0 $"
b0 8"
14"
05"
b101000 _
b101000 C
b101000 Y
b101000 e
b1 ^"
b10 `"
b11 Y"
0B"
0?
1@"
19
b1 ?"
b1 6
b1 G"
b1 J"
b100110 :"
b100110 Q
b100110 ="
b0 ,"
1&"
10
0J
b1 ."
b1 }
0w
0.
1E
b101 #"
b110 z
0q
0U
1r
1V
b101000 n
b101000 P
b101000 %"
b101000 '"
b0 b
b1 d
b10 ]
1g"
12
#1600
0g"
02
#1680
b101000 +"
b101000 L
b101000 $"
b101000 8"
b101000 9"
12"
1N
01"
0I
16"
1W
1F"
0E"
b10100 D"
b101000 _
b101000 C
b101000 Y
b101000 e
b0 |
b0 G
b0 u
b0 7"
04"
15"
1>"
b0 C"
b1 N"
b1 !
b1 7
b1 H"
b1 a"
1c"
1$
b0 ["
b0 %
b0 =
b0 U"
b0 b"
0d"
0(
b10 d
b11 ]
b1 b
b101 !"
b0 }
1w
1.
0E
b10 0"
b11 )"
b1 ,"
0&"
00
1J
b10100 :"
b10100 Q
b10100 ="
b100110 ?"
b100110 6
b100110 G"
b100110 J"
b10 S"
b11 L"
b1 O"
0I"
0"
14
b10 ^"
b0 \"
1V"
1&
0:
1g"
12
#1760
0g"
02
#1840
0F"
1E"
b101000 C"
b100110 N"
b100110 !
b100110 7
b100110 H"
b100110 a"
0>"
b0 D"
b101000 +"
b101000 L
b101000 $"
b101000 8"
b101000 _
b101000 C
b101000 Y
b101000 e
b10 Q"
b11 S"
b100 L"
0@"
09
1B"
1?
b10100 A"
b10100 <
b10100 T"
b10100 W"
b101000 :"
b101000 Q
b101000 ="
b10 ."
b11 0"
b100 )"
b10 b
b11 d
b100 ]
1g"
12
#1920
0g"
02
#2000
b101000 _
b101000 C
b101000 Y
b101000 e
b101000 +"
b101000 L
b101000 $"
b101000 8"
b0 N"
b0 !
b0 7
b0 H"
b0 a"
0c"
0$
b10100 ["
b10100 %
b10100 =
b10100 U"
b10100 b"
1d"
1(
b0 d
b1 ]
b11 b
b100 0"
b101 )"
b11 ."
0B"
0?
1@"
19
b101000 ?"
b101000 6
b101000 G"
b101000 J"
b11 Q"
b0 O"
1I"
1"
04
b11 `"
b100 Y"
b1 \"
0V"
0&
1:
1g"
12
#2080
0g"
02
#2160
b101000 N"
b101000 !
b101000 7
b101000 H"
b101000 a"
0d"
0(
b0 ["
b0 %
b0 =
b0 U"
b0 b"
1c"
1$
b101000 +"
b101000 L
b101000 $"
b101000 8"
b101000 _
b101000 C
b101000 Y
b101000 e
b0 \"
1V"
1&
0:
b11 ^"
b1 O"
0I"
0"
14
b0 S"
b1 L"
b100 ."
b101 0"
b110 )"
b0 b
b1 d
b10 ]
1g"
12
#2240
0g"
02
#2320
b101000 _
b101000 C
b101000 Y
b101000 e
b101000 +"
b101000 L
b101000 $"
b101000 8"
b101000 N"
b101000 !
b101000 7
b101000 H"
b101000 a"
b10 d
b11 ]
b1 b
b110 0"
b111 )"
b101 ."
b1 S"
b10 L"
b0 Q"
1g"
12
#2400
0g"
02
#2480
b101000 N"
b101000 !
b101000 7
b101000 H"
b101000 a"
b101000 +"
b101000 L
b101000 $"
b101000 8"
b101000 _
b101000 C
b101000 Y
b101000 e
b1 Q"
b10 S"
b11 L"
b110 ."
b111 0"
b1000 )"
b10 b
b11 d
b100 ]
1g"
12
#2560
0g"
02
#2640
b101000 _
b101000 C
b101000 Y
b101000 e
b101000 +"
b101000 L
b101000 $"
b101000 8"
b101000 N"
b101000 !
b101000 7
b101000 H"
b101000 a"
b0 d
b1 ]
b11 b
b1000 0"
b1001 )"
b111 ."
b11 S"
b100 L"
b10 Q"
1g"
12
#2720
0g"
02
#2800
b101000 N"
b101000 !
b101000 7
b101000 H"
b101000 a"
b101000 +"
b101000 L
b101000 $"
b101000 8"
b101000 _
b101000 C
b101000 Y
b101000 e
b11 Q"
b0 S"
b1 L"
b1000 ."
b1001 0"
b1010 )"
b0 b
b1 d
b10 ]
1g"
12
#2880
0g"
02
#2960
b101000 _
b101000 C
b101000 Y
b101000 e
b101000 +"
b101000 L
b101000 $"
b101000 8"
b101000 N"
b101000 !
b101000 7
b101000 H"
b101000 a"
b10 d
b11 ]
b1 b
b1010 0"
b1011 )"
b1001 ."
b1 S"
b10 L"
b0 Q"
1g"
12
#3040
0g"
02
#3120
b101000 N"
b101000 !
b101000 7
b101000 H"
b101000 a"
b101000 +"
b101000 L
b101000 $"
b101000 8"
b101000 _
b101000 C
b101000 Y
b101000 e
b1 Q"
b10 S"
b11 L"
b1010 ."
b1011 0"
b1100 )"
b10 b
b11 d
b100 ]
1g"
12
#3200
0g"
02
#3280
b101000 _
b101000 C
b101000 Y
b101000 e
b101000 +"
b101000 L
b101000 $"
b101000 8"
b101000 N"
b101000 !
b101000 7
b101000 H"
b101000 a"
b0 d
b1 ]
b11 b
b1100 0"
b1101 )"
b1011 ."
b11 S"
b100 L"
b10 Q"
1g"
12
#3360
0g"
02
#3440
b101000 N"
b101000 !
b101000 7
b101000 H"
b101000 a"
b101000 +"
b101000 L
b101000 $"
b101000 8"
b101000 _
b101000 C
b101000 Y
b101000 e
b11 Q"
b0 S"
b1 L"
b1100 ."
b1101 0"
b1110 )"
b0 b
b1 d
b10 ]
1g"
12
#3520
0g"
02
#3600
b101000 _
b101000 C
b101000 Y
b101000 e
b101000 +"
b101000 L
b101000 $"
b101000 8"
b101000 N"
b101000 !
b101000 7
b101000 H"
b101000 a"
b10 d
b11 ]
b1 b
b1110 0"
b1111 )"
b1101 ."
b1 S"
b10 L"
b0 Q"
1g"
12
#3680
0g"
02
#3760
b101000 N"
b101000 !
b101000 7
b101000 H"
b101000 a"
b101000 +"
b101000 L
b101000 $"
b101000 8"
b101000 _
b101000 C
b101000 Y
b101000 e
b1 Q"
b10 S"
b11 L"
b1110 ."
b1111 0"
b10000 )"
b10 b
b11 d
b100 ]
1g"
12
#3840
0g"
02
#3920
b101000 _
b101000 C
b101000 Y
b101000 e
b101000 +"
b101000 L
b101000 $"
b101000 8"
b101000 N"
b101000 !
b101000 7
b101000 H"
b101000 a"
b0 d
b1 ]
b11 b
b0 0"
b1 )"
b1111 ."
b11 S"
b100 L"
b10 Q"
1g"
12
#4000
0g"
02
#4080
b101000 N"
b101000 !
b101000 7
b101000 H"
b101000 a"
b101000 +"
b101000 L
b101000 $"
b101000 8"
b101000 _
b101000 C
b101000 Y
b101000 e
b11 Q"
b0 S"
b1 L"
b0 ."
b1 0"
b10 )"
b0 b
b1 d
b10 ]
1g"
12
#4160
0g"
02
#4240
b101000 _
b101000 C
b101000 Y
b101000 e
b101000 +"
b101000 L
b101000 $"
b101000 8"
b101000 N"
b101000 !
b101000 7
b101000 H"
b101000 a"
b10 d
b11 ]
b1 b
b10 0"
b11 )"
b1 ."
b1 S"
b10 L"
b0 Q"
1g"
12
#4320
0g"
02
#4400
b101000 N"
b101000 !
b101000 7
b101000 H"
b101000 a"
b101000 +"
b101000 L
b101000 $"
b101000 8"
b101000 _
b101000 C
b101000 Y
b101000 e
b1 Q"
b10 S"
b11 L"
b10 ."
b11 0"
b100 )"
b10 b
b11 d
b100 ]
1g"
12
