intFSM/dump/interconexion.vcd
$date
	Tue Nov 10 23:15:25 2020
$end
$version
	Icarus Verilog
$end
$timescale
	100ps
$end
$scope module testbench $end
$var wire 6 ! D0_data_out [5:0] $end
$var wire 1 " D0_empty $end
$var wire 1 # D0_error_output $end
$var wire 1 $ D0_rd $end
$var wire 6 % D1_data_out [5:0] $end
$var wire 1 & D1_empty $end
$var wire 1 ' D1_error_output $end
$var wire 1 ( D1_rd $end
$var wire 6 ) Main_data_in [5:0] $end
$var wire 1 * Main_empty $end
$var wire 1 + Main_error_output $end
$var wire 1 , Main_full $end
$var wire 1 - Main_wr $end
$var wire 8 . UmbralesDs_HIGH [7:0] $end
$var wire 8 / UmbralesDs_LOW [7:0] $end
$var wire 4 0 UmbralesMFs_HIGH [3:0] $end
$var wire 4 1 UmbralesMFs_LOW [3:0] $end
$var wire 32 2 UmbralesVCs_HIGH [31:0] $end
$var wire 32 3 UmbralesVCs_LOW [31:0] $end
$var wire 1 4 VC0_empty $end
$var wire 1 5 VC0_error_output $end
$var wire 1 6 VC1_empty $end
$var wire 1 7 VC1_error_output $end
$var wire 1 8 active_out_cond $end
$var wire 1 9 clk $end
$var wire 5 : error_full_cond [4:0] $end
$var wire 1 ; error_out_cond $end
$var wire 1 < idle_out_cond $end
$var wire 1 = init $end
$var wire 1 > reset_L $end
$scope module md $end
$var wire 6 ? D0_data_out [5:0] $end
$var wire 1 $ D0_rd $end
$var wire 6 @ D1_data_out [5:0] $end
$var wire 1 ( D1_rd $end
$var wire 5 A FIFO_EMPTIES [4:0] $end
$var wire 5 B FIFO_ERRORS [4:0] $end
$var wire 6 C Main_data_in [5:0] $end
$var wire 1 D Main_full $end
$var wire 1 - Main_wr $end
$var wire 4 E UmbralD0_HIGH_cond [3:0] $end
$var wire 4 F UmbralD0_LOW_cond [3:0] $end
$var wire 4 G UmbralD1_HIGH_cond [3:0] $end
$var wire 4 H UmbralD1_LOW_cond [3:0] $end
$var wire 4 I UmbralMF_HIGH_cond [3:0] $end
$var wire 4 J UmbralMF_LOW_cond [3:0] $end
$var wire 16 K UmbralV0_HIGH_cond [15:0] $end
$var wire 16 L UmbralV0_LOW_cond [15:0] $end
$var wire 16 M UmbralV1_HIGH_cond [15:0] $end
$var wire 16 N UmbralV1_LOW_cond [15:0] $end
$var wire 8 O UmbralesDs_HIGH [7:0] $end
$var wire 8 P UmbralesDs_LOW [7:0] $end
$var wire 4 Q UmbralesMFs_HIGH [3:0] $end
$var wire 4 R UmbralesMFs_LOW [3:0] $end
$var wire 32 S UmbralesVCs_HIGH [31:0] $end
$var wire 32 T UmbralesVCs_LOW [31:0] $end
$var wire 1 8 active_out_cond $end
$var wire 1 9 clk $end
$var wire 5 U error_full_cond [4:0] $end
$var wire 1 ; error_out_cond $end
$var wire 1 < idle_out_cond $end
$var wire 1 = init $end
$var wire 1 > reset_L $end
$scope module intern0 $end
$var wire 1 V D0_almost_empty $end
$var wire 1 W D0_almost_full $end
$var wire 6 X D0_data_in [5:0] $end
$var wire 6 Y D0_data_out [5:0] $end
$var wire 1 Z D0_empty $end
$var wire 1 [ D0_error_output $end
$var wire 1 \ D0_full $end
$var wire 1 $ D0_rd $end
$var wire 1 ] D0_wr $end
$var wire 1 ^ D1_almost_empty $end
$var wire 1 _ D1_almost_full $end
$var wire 6 ` D1_data_in [5:0] $end
$var wire 6 a D1_data_out [5:0] $end
$var wire 1 b D1_empty $end
$var wire 1 c D1_error_output $end
$var wire 1 d D1_full $end
$var wire 1 ( D1_rd $end
$var wire 1 e D1_wr $end
$var wire 1 f Main_almost_empty $end
$var wire 1 g Main_almost_full $end
$var wire 6 h Main_data_in [5:0] $end
$var wire 6 i Main_data_out [5:0] $end
$var wire 1 j Main_empty $end
$var wire 1 k Main_error_output $end
$var wire 1 D Main_full $end
$var wire 1 l Main_rd $end
$var wire 1 - Main_wr $end
$var wire 4 m UmbralD0_HIGH_cond [3:0] $end
$var wire 4 n UmbralD0_LOW_cond [3:0] $end
$var wire 4 o UmbralD1_HIGH_cond [3:0] $end
$var wire 4 p UmbralD1_LOW_cond [3:0] $end
$var wire 4 q UmbralMF_HIGH_cond [3:0] $end
$var wire 4 r UmbralMF_LOW_cond [3:0] $end
$var wire 16 s UmbralV0_HIGH_cond [15:0] $end
$var wire 16 t UmbralV0_LOW_cond [15:0] $end
$var wire 16 u UmbralV1_HIGH_cond [15:0] $end
$var wire 16 v UmbralV1_LOW_cond [15:0] $end
$var wire 1 w VC0_almost_empty $end
$var wire 1 x VC0_almost_full $end
$var wire 6 y VC0_data_out [5:0] $end
$var wire 1 z VC0_empty $end
$var wire 1 { VC0_error_output $end
$var wire 1 | VC0_full $end
$var wire 1 } VC0_rd $end
$var wire 1 ~ VC1_almost_empty $end
$var wire 1 !" VC1_almost_full $end
$var wire 6 "" VC1_data_out [5:0] $end
$var wire 1 #" VC1_empty $end
$var wire 1 $" VC1_error_output $end
$var wire 1 %" VC1_full $end
$var wire 1 &" VC1_rd $end
$var wire 1 9 clk $end
$var wire 6 '" data_in_vc0 [5:0] $end
$var wire 6 (" data_in_vc1 [5:0] $end
$var wire 6 )" demux_dest_data_in [5:0] $end
$var wire 1 *" demux_dest_valid_in $end
$var wire 6 +" demux_vcid_in [5:0] $end
$var wire 1 ," demux_vcid_valid_in $end
$var wire 1 > reset_L $end
$var wire 1 -" valid_in_vc0 $end
$var wire 1 ." valid_in_vc1 $end
$var wire 1 /" vc0_delay $end
$scope module f_main $end
$var wire 1 f Main_almost_empty $end
$var wire 1 g Main_almost_full $end
$var wire 6 0" Main_data_in [5:0] $end
$var wire 6 1" Main_data_out [5:0] $end
$var wire 1 j Main_empty $end
$var wire 1 k Main_error_output $end
$var wire 1 D Main_full $end
$var wire 1 l Main_rd $end
$var wire 1 - Main_wr $end
$var wire 4 2" UmbralMF_HIGH_cond [3:0] $end
$var wire 4 3" UmbralMF_LOW_cond [3:0] $end
$var wire 1 9 clk $end
$var wire 1 > reset_L $end
$scope module Main $end
$var wire 1 9 clk $end
$var wire 1 4" empty $end
$var wire 1 f fifo_almost_empty $end
$var wire 1 g fifo_almost_full $end
$var wire 6 5" fifo_data_in [5:0] $end
$var wire 1 j fifo_empty $end
$var wire 1 D fifo_full $end
$var wire 1 l fifo_rd $end
$var wire 1 - fifo_wr $end
$var wire 1 6" full $end
$var wire 4 7" nxtaddr [3:0] $end
$var wire 1 > reset_L $end
$var wire 4 8" umbral_alto [3:0] $end
$var wire 4 9" umbral_bajo [3:0] $end
$var reg 1 :" error_output $end
$var reg 6 ;" fifo_data_out [5:0] $end
$var reg 4 <" o_fill [3:0] $end
$var reg 1 =" overrun $end
$var reg 4 >" rdaddr [3:0] $end
$var reg 1 ?" underrun $end
$var reg 4 @" wraddr [3:0] $end
$upscope $end
$upscope $end
$scope module pop_main $end
$var wire 6 A" Main_data_out [5:0] $end
$var wire 1 j Main_empty $end
$var wire 1 x VC0_almost_full $end
$var wire 1 !" VC1_almost_full $end
$var wire 1 9 clk $end
$var wire 1 > reset_L $end
$var reg 1 B" Main_rd $end
$var reg 6 C" data_out_recordar [5:0] $end
$var reg 6 D" demux_vcid_in [5:0] $end
$var reg 1 E" demux_vcid_valid_in $end
$var reg 1 F" demux_vcid_valid_in_recordar $end
$upscope $end
$scope module d_vcid $end
$var wire 1 9 clk $end
$var wire 6 G" demux_vcid_in [5:0] $end
$var wire 1 ," demux_vcid_valid_in $end
$var wire 1 > reset_L $end
$var wire 1 H" selector $end
$var reg 6 I" data_in_vc0 [5:0] $end
$var reg 6 J" data_in_vc1 [5:0] $end
$var reg 6 K" data_recordar0 [5:0] $end
$var reg 6 L" data_recordar1 [5:0] $end
$var reg 1 M" valid_in_vc0 $end
$var reg 1 N" valid_in_vc1 $end
$var reg 1 O" valid_recordar0 $end
$var reg 1 P" valid_recordar1 $end
$upscope $end
$scope module f_vc0 $end
$var wire 16 Q" UmbralV0_HIGH_cond [15:0] $end
$var wire 16 R" UmbralV0_LOW_cond [15:0] $end
$var wire 1 w VC0_almost_empty $end
$var wire 1 x VC0_almost_full $end
$var wire 6 S" VC0_data_out [5:0] $end
$var wire 1 z VC0_empty $end
$var wire 1 { VC0_error_output $end
$var wire 1 | VC0_full $end
$var wire 1 } VC0_rd $end
$var wire 1 9 clk $end
$var wire 6 T" data_in_vc0 [5:0] $end
$var wire 1 > reset_L $end
$var wire 1 -" valid_in_vc0 $end
$scope module VC0 $end
$var wire 1 9 clk $end
$var wire 1 U" empty $end
$var wire 1 w fifo_almost_empty $end
$var wire 1 x fifo_almost_full $end
$var wire 6 V" fifo_data_in [5:0] $end
$var wire 1 z fifo_empty $end
$var wire 1 | fifo_full $end
$var wire 1 } fifo_rd $end
$var wire 1 -" fifo_wr $end
$var wire 1 W" full $end
$var wire 16 X" nxtaddr [15:0] $end
$var wire 1 > reset_L $end
$var wire 16 Y" umbral_alto [15:0] $end
$var wire 16 Z" umbral_bajo [15:0] $end
$var reg 1 [" error_output $end
$var reg 6 \" fifo_data_out [5:0] $end
$var reg 16 ]" o_fill [15:0] $end
$var reg 1 ^" overrun $end
$var reg 16 _" rdaddr [15:0] $end
$var reg 1 `" underrun $end
$var reg 16 a" wraddr [15:0] $end
$upscope $end
$upscope $end
$scope module f_vc1 $end
$var wire 16 b" UmbralV1_HIGH_cond [15:0] $end
$var wire 16 c" UmbralV1_LOW_cond [15:0] $end
$var wire 1 ~ VC1_almost_empty $end
$var wire 1 !" VC1_almost_full $end
$var wire 6 d" VC1_data_out [5:0] $end
$var wire 1 #" VC1_empty $end
$var wire 1 $" VC1_error_output $end
$var wire 1 %" VC1_full $end
$var wire 1 &" VC1_rd $end
$var wire 1 9 clk $end
$var wire 6 e" data_in_vc1 [5:0] $end
$var wire 1 > reset_L $end
$var wire 1 ." valid_in_vc1 $end
$scope module VC1 $end
$var wire 1 9 clk $end
$var wire 1 f" empty $end
$var wire 1 ~ fifo_almost_empty $end
$var wire 1 !" fifo_almost_full $end
$var wire 6 g" fifo_data_in [5:0] $end
$var wire 1 #" fifo_empty $end
$var wire 1 %" fifo_full $end
$var wire 1 &" fifo_rd $end
$var wire 1 ." fifo_wr $end
$var wire 1 h" full $end
$var wire 16 i" nxtaddr [15:0] $end
$var wire 1 > reset_L $end
$var wire 16 j" umbral_alto [15:0] $end
$var wire 16 k" umbral_bajo [15:0] $end
$var reg 1 l" error_output $end
$var reg 6 m" fifo_data_out [5:0] $end
$var reg 16 n" o_fill [15:0] $end
$var reg 1 o" overrun $end
$var reg 16 p" rdaddr [15:0] $end
$var reg 1 q" underrun $end
$var reg 16 r" wraddr [15:0] $end
$upscope $end
$upscope $end
$scope module pop_vc0 $end
$var wire 1 \ D0_full $end
$var wire 1 d D1_full $end
$var wire 1 z VC0_empty $end
$var wire 1 #" VC1_empty $end
$var wire 1 9 clk $end
$var wire 1 > reset_L $end
$var reg 1 s" VC0_rd $end
$var reg 1 t" VC1_rd $end
$var reg 1 u" and_d0d1 $end
$var reg 1 v" and_vc0_0 $end
$var reg 1 w" and_vc0_1 $end
$var reg 1 x" vc0_delay $end
$upscope $end
$scope module mux1 $end
$var wire 6 y" VC0_data_out [5:0] $end
$var wire 1 } VC0_rd $end
$var wire 6 z" VC1_data_out [5:0] $end
$var wire 1 &" VC1_rd $end
$var wire 1 9 clk $end
$var wire 1 > reset_L $end
$var wire 1 /" vc0_delay $end
$var reg 6 {" data_out_recordar [5:0] $end
$var reg 6 |" demux_dest_data_in [5:0] $end
$var reg 1 }" demux_dest_valid_in $end
$var reg 1 ~" valid_in_recordar $end
$upscope $end
$scope module d_dest $end
$var wire 1 9 clk $end
$var wire 6 !# demux_dest_data_in [5:0] $end
$var wire 1 *" demux_dest_valid_in $end
$var wire 1 > reset_L $end
$var wire 1 "# selector $end
$var reg 6 ## D0_data_in [5:0] $end
$var reg 1 $# D0_wr $end
$var reg 6 %# D1_data_in [5:0] $end
$var reg 1 &# D1_wr $end
$var reg 6 '# data_recordar0 [5:0] $end
$var reg 6 (# data_recordar1 [5:0] $end
$var reg 1 )# valid_recordar0 $end
$var reg 1 *# valid_recordar1 $end
$upscope $end
$scope module f_d0 $end
$var wire 1 V D0_almost_empty $end
$var wire 1 W D0_almost_full $end
$var wire 6 +# D0_data_in [5:0] $end
$var wire 6 ,# D0_data_out [5:0] $end
$var wire 1 Z D0_empty $end
$var wire 1 [ D0_error_output $end
$var wire 1 \ D0_full $end
$var wire 1 $ D0_rd $end
$var wire 1 ] D0_wr $end
$var wire 4 -# UmbralD0_HIGH_cond [3:0] $end
$var wire 4 .# UmbralD0_LOW_cond [3:0] $end
$var wire 1 9 clk $end
$var wire 1 > reset_L $end
$scope module D0 $end
$var wire 1 9 clk $end
$var wire 1 /# empty $end
$var wire 1 V fifo_almost_empty $end
$var wire 1 W fifo_almost_full $end
$var wire 6 0# fifo_data_in [5:0] $end
$var wire 1 Z fifo_empty $end
$var wire 1 \ fifo_full $end
$var wire 1 $ fifo_rd $end
$var wire 1 ] fifo_wr $end
$var wire 1 1# full $end
$var wire 4 2# nxtaddr [3:0] $end
$var wire 1 > reset_L $end
$var wire 4 3# umbral_alto [3:0] $end
$var wire 4 4# umbral_bajo [3:0] $end
$var reg 1 5# error_output $end
$var reg 6 6# fifo_data_out [5:0] $end
$var reg 4 7# o_fill [3:0] $end
$var reg 1 8# overrun $end
$var reg 4 9# rdaddr [3:0] $end
$var reg 1 :# underrun $end
$var reg 4 ;# wraddr [3:0] $end
$upscope $end
$upscope $end
$scope module f_d1 $end
$var wire 1 ^ D1_almost_empty $end
$var wire 1 _ D1_almost_full $end
$var wire 6 <# D1_data_in [5:0] $end
$var wire 6 =# D1_data_out [5:0] $end
$var wire 1 b D1_empty $end
$var wire 1 c D1_error_output $end
$var wire 1 d D1_full $end
$var wire 1 ( D1_rd $end
$var wire 1 e D1_wr $end
$var wire 4 ># UmbralD1_HIGH_cond [3:0] $end
$var wire 4 ?# UmbralD1_LOW_cond [3:0] $end
$var wire 1 9 clk $end
$var wire 1 > reset_L $end
$scope module D1 $end
$var wire 1 9 clk $end
$var wire 1 @# empty $end
$var wire 1 ^ fifo_almost_empty $end
$var wire 1 _ fifo_almost_full $end
$var wire 6 A# fifo_data_in [5:0] $end
$var wire 1 b fifo_empty $end
$var wire 1 d fifo_full $end
$var wire 1 ( fifo_rd $end
$var wire 1 e fifo_wr $end
$var wire 1 B# full $end
$var wire 4 C# nxtaddr [3:0] $end
$var wire 1 > reset_L $end
$var wire 4 D# umbral_alto [3:0] $end
$var wire 4 E# umbral_bajo [3:0] $end
$var reg 1 F# error_output $end
$var reg 6 G# fifo_data_out [5:0] $end
$var reg 4 H# o_fill [3:0] $end
$var reg 1 I# overrun $end
$var reg 4 J# rdaddr [3:0] $end
$var reg 1 K# underrun $end
$var reg 4 L# wraddr [3:0] $end
$upscope $end
$upscope $end
$upscope $end
$scope module maquina $end
$var wire 5 M# FIFO_EMPTIES [4:0] $end
$var wire 5 N# FIFO_ERRORS [4:0] $end
$var wire 8 O# UmbralesDs_HIGH [7:0] $end
$var wire 8 P# UmbralesDs_LOW [7:0] $end
$var wire 4 Q# UmbralesMFs_HIGH [3:0] $end
$var wire 4 R# UmbralesMFs_LOW [3:0] $end
$var wire 32 S# UmbralesVCs_HIGH [31:0] $end
$var wire 32 T# UmbralesVCs_LOW [31:0] $end
$var wire 1 9 clk $end
$var wire 1 = init $end
$var wire 1 > reset_L $end
$var reg 4 U# UmbralD0_HIGH [3:0] $end
$var reg 4 V# UmbralD0_HIGH_cond [3:0] $end
$var reg 4 W# UmbralD0_LOW [3:0] $end
$var reg 4 X# UmbralD0_LOW_cond [3:0] $end
$var reg 4 Y# UmbralD1_HIGH [3:0] $end
$var reg 4 Z# UmbralD1_HIGH_cond [3:0] $end
$var reg 4 [# UmbralD1_LOW [3:0] $end
$var reg 4 \# UmbralD1_LOW_cond [3:0] $end
$var reg 4 ]# UmbralMF_HIGH [3:0] $end
$var reg 4 ^# UmbralMF_HIGH_cond [3:0] $end
$var reg 4 _# UmbralMF_LOW [3:0] $end
$var reg 4 `# UmbralMF_LOW_cond [3:0] $end
$var reg 16 a# UmbralV0_HIGH [15:0] $end
$var reg 16 b# UmbralV0_HIGH_cond [15:0] $end
$var reg 16 c# UmbralV0_LOW [15:0] $end
$var reg 16 d# UmbralV0_LOW_cond [15:0] $end
$var reg 16 e# UmbralV1_HIGH [15:0] $end
$var reg 16 f# UmbralV1_HIGH_cond [15:0] $end
$var reg 16 g# UmbralV1_LOW [15:0] $end
$var reg 16 h# UmbralV1_LOW_cond [15:0] $end
$var reg 1 i# active_out_cond $end
$var reg 5 j# error_full_cond [4:0] $end
$var reg 1 k# error_out_cond $end
$var reg 3 l# estado [2:0] $end
$var reg 3 m# estado_prox [2:0] $end
$var reg 1 n# idle_out_cond $end
$upscope $end
$upscope $end
$scope module prb $end
$var wire 6 o# D0_data_out [5:0] $end
$var wire 1 " D0_empty $end
$var wire 1 # D0_error_output $end
$var wire 6 p# D1_data_out [5:0] $end
$var wire 1 & D1_empty $end
$var wire 1 ' D1_error_output $end
$var wire 1 * Main_empty $end
$var wire 1 + Main_error_output $end
$var wire 1 , Main_full $end
$var wire 1 4 VC0_empty $end
$var wire 1 5 VC0_error_output $end
$var wire 1 6 VC1_empty $end
$var wire 1 7 VC1_error_output $end
$var wire 1 8 active_out_cond $end
$var wire 5 q# error_full_cond [4:0] $end
$var wire 1 ; error_out_cond $end
$var wire 1 < idle_out_cond $end
$var reg 1 r# D0_rd $end
$var reg 1 s# D1_rd $end
$var reg 6 t# Main_data_in [5:0] $end
$var reg 1 u# Main_wr $end
$var reg 8 v# UmbralesDs_HIGH [7:0] $end
$var reg 8 w# UmbralesDs_LOW [7:0] $end
$var reg 4 x# UmbralesMFs_HIGH [3:0] $end
$var reg 4 y# UmbralesMFs_LOW [3:0] $end
$var reg 32 z# UmbralesVCs_HIGH [31:0] $end
$var reg 32 {# UmbralesVCs_LOW [31:0] $end
$var reg 1 |# clk $end
$var reg 1 }# init $end
$var reg 1 ~# reset_L $end
$upscope $end
$upscope $end
$enddefinitions $end
#0
$dumpvars
0~#
x}#
0|#
b1 {#
b11111111111111111111111111111111 z#
b1 y#
b11 x#
b1 w#
b11111111 v#
0u#
b0 t#
0s#
0r#
b0 q#
b0 p#
b0 o#
0n#
bx m#
bx l#
0k#
b0 j#
0i#
b0 h#
b1 g#
b0 f#
b1111111111111111 e#
b0 d#
b0 c#
b0 b#
b1111111111111111 a#
b0 `#
b1 _#
b0 ^#
b11 ]#
b0 \#
b1 [#
b0 Z#
b1111 Y#
b0 X#
b0 W#
b0 V#
b1111 U#
b1 T#
b11111111111111111111111111111111 S#
b1 R#
b11 Q#
b1 P#
b11111111 O#
bx N#
bx M#
bx L#
xK#
bx J#
xI#
bx H#
b0 G#
xF#
b0 E#
b0 D#
bx C#
xB#
bx A#
x@#
b0 ?#
b0 >#
b0 =#
bx <#
bx ;#
x:#
bx 9#
x8#
bx 7#
b0 6#
x5#
b0 4#
b0 3#
bx 2#
x1#
bx 0#
x/#
b0 .#
b0 -#
b0 ,#
bx +#
0*#
0)#
b0 (#
b0 '#
x&#
bx %#
x$#
bx ##
x"#
bx !#
x~"
x}"
bx |"
bx {"
bx z"
bx y"
xx"
xw"
xv"
xu"
xt"
xs"
bx r"
xq"
bx p"
xo"
bx n"
bx m"
xl"
b0 k"
b0 j"
bx i"
xh"
bx g"
xf"
bx e"
bx d"
b0 c"
b0 b"
bx a"
x`"
bx _"
x^"
bx ]"
bx \"
x["
b0 Z"
b0 Y"
bx X"
xW"
bx V"
xU"
bx T"
bx S"
b0 R"
b0 Q"
0P"
0O"
xN"
xM"
b0 L"
b0 K"
bx J"
bx I"
xH"
bx G"
xF"
xE"
bx D"
bx C"
xB"
bx A"
bx @"
x?"
bx >"
x="
bx <"
bx ;"
x:"
b0 9"
b0 8"
bx 7"
x6"
b0 5"
x4"
b0 3"
b0 2"
bx 1"
b0 0"
x/"
x."
x-"
x,"
bx +"
x*"
bx )"
bx ("
bx '"
x&"
x%"
x$"
x#"
bx ""
x!"
x~
x}
x|
x{
xz
bx y
xx
xw
b0 v
b0 u
b0 t
b0 s
b0 r
b0 q
b0 p
b0 o
b0 n
b0 m
xl
xk
xj
bx i
b0 h
xg
xf
xe
xd
xc
xb
b0 a
bx `
x_
x^
x]
x\
x[
xZ
b0 Y
bx X
xW
xV
b0 U
b1 T
b11111111111111111111111111111111 S
b1 R
b11 Q
b1 P
b11111111 O
b0 N
b0 M
b0 L
b0 K
b0 J
b0 I
b0 H
b0 G
b0 F
b0 E
xD
b0 C
bx B
bx A
b0 @
b0 ?
0>
x=
0<
0;
b0 :
09
08
z7
z6
z5
z4
b1 3
b11111111111111111111111111111111 2
b1 1
b11 0
b1 /
b11111111 .
0-
z,
z+
z*
b0 )
0(
z'
z&
b0 %
0$
z#
z"
b0 !
$end
#80
b0 {"
0~"
0t"
0&"
0s"
0}
0x"
0/"
0:"
0k
b0 ;"
b0 i
b0 1"
b0 A"
0H"
0["
0{
b0 \"
b0 y
b0 S"
b0 y"
0v"
0l"
0$"
b0 m"
b0 ""
b0 d"
b0 z"
0w"
0B"
0l
0F"
b0 C"
0"#
05#
0[
0F#
0c
b0 B
b0 N#
0u"
b0 \#
b0 H
b0 p
b0 ?#
b0 E#
b0 Z#
b0 G
b0 o
b0 >#
b0 D#
b0 V#
b0 E
b0 m
b0 -#
b0 3#
b0 h#
b0 N
b0 v
b0 c"
b0 k"
b0 f#
b0 M
b0 u
b0 b"
b0 j"
b0 b#
b0 K
b0 s
b0 Q"
b0 Y"
b0 `#
b0 J
b0 r
b0 3"
b0 9"
b0 ^#
b0 I
b0 q
b0 2"
b0 8"
b1 m#
0="
b0 @"
b1 7"
0?"
b0 >"
b0 <"
06"
0D
14"
1j
1f
1g
0E"
0,"
b0 D"
b0 +"
b0 G"
0N"
0."
0M"
0-"
b0 J"
b0 ("
b0 e"
b0 g"
b0 I"
b0 '"
b0 T"
b0 V"
0^"
b0 a"
b1 X"
0`"
b0 _"
b0 ]"
0W"
0|
1U"
1z
1w
1x
0o"
b0 r"
b1 i"
0q"
b0 p"
b0 n"
0h"
0%"
1f"
1#"
1~
1!"
0}"
0*"
b0 |"
b0 )"
b0 !#
0&#
0e
0$#
0]
b0 %#
b0 `
b0 <#
b0 A#
b0 ##
b0 X
b0 +#
b0 0#
08#
b0 ;#
b1 2#
0:#
b0 9#
b0 7#
01#
0\
1/#
1Z
1V
1W
0I#
b0 L#
b1 C#
0K#
b0 J#
b0 H#
0B#
0d
1@#
1b
b11111 A
b11111 M#
1^
1_
b0 l#
b101 t#
b101 )
b101 C
b101 h
b101 0"
b101 5"
1~#
1>
1|#
19
#160
0|#
09
#240
b1 \#
0^
b1 H
b1 p
b1 ?#
b1 E#
b1111 Z#
0_
b1111 G
b1111 o
b1111 >#
b1111 D#
b1111 V#
0W
b1111 E
b1111 m
b1111 -#
b1111 3#
b1 h#
0~
b1 N
b1 v
b1 c"
b1 k"
b1111111111111111 f#
0!"
b1111111111111111 M
b1111111111111111 u
b1111111111111111 b"
b1111111111111111 j"
b1111111111111111 b#
0x
b1111111111111111 K
b1111111111111111 s
b1111111111111111 Q"
b1111111111111111 Y"
b1 `#
0f
b1 J
b1 r
b1 3"
b1 9"
b11 ^#
0g
b11 I
b11 q
b11 2"
b11 8"
b10111 t#
b10111 )
b10111 C
b10111 h
b10111 0"
b10111 5"
b1 l#
1|#
19
#320
0|#
09
#400
b11100 t#
b11100 )
b11100 C
b11100 h
b11100 0"
b11100 5"
1|#
19
#480
0|#
09
#560
b1 t#
b1 )
b1 C
b1 h
b1 0"
b1 5"
1|#
19
#640
0|#
09
#720
b100110 t#
b100110 )
b100110 C
b100110 h
b100110 0"
b100110 5"
1|#
19
#800
0|#
09
#880
b10100 t#
b10100 )
b10100 C
b10100 h
b10100 0"
b10100 5"
1|#
19
#960
0|#
09
#1040
b101000 t#
b101000 )
b101000 C
b101000 h
b101000 0"
b101000 5"
1|#
19
